{
  "images" : [
    {
      "idiom" : "universal",
      "filename" : "2c7e34c1-7bda-4438-98be-17ee1f5d2e64.png",
      "scale" : "1x"
    },
    {
      "idiom" : "universal",
      "scale" : "2x"
    },
    {
      "idiom" : "universal",
      "scale" : "3x"
    }
  ],
  "info" : {
    "version" : 1,
    "author" : "xcode"
  }
}